# gmm-est --write-occs=exp/mono0a/4.occs --mix-up=92 --power=0.25 exp/mono0a/3.mdl "gmm-sum-accs - exp/mono0a/3.*.acc|" exp/mono0a/4.mdl 
# Started at Mon Jul 13 18:06:33 EEST 2015
#
gmm-est --write-occs=exp/mono0a/4.occs --mix-up=92 --power=0.25 exp/mono0a/3.mdl 'gmm-sum-accs - exp/mono0a/3.*.acc|' exp/mono0a/4.mdl 
gmm-sum-accs - exp/mono0a/3.1.acc 
LOG (gmm-sum-accs:main():gmm-sum-accs.cc:63) Summed 1 stats, total count 492109, avg like/frame -85.128
LOG (gmm-sum-accs:main():gmm-sum-accs.cc:66) Total count of stats is 492109
LOG (gmm-sum-accs:main():gmm-sum-accs.cc:67) Written stats to -
LOG (gmm-est:MleUpdate():transition-model.cc:393) TransitionModel::Update, objf change is 0.00134807 per frame over 492109 frames. 
LOG (gmm-est:MleUpdate():transition-model.cc:396) 9 probabilities floored, 0 out of 70 transition-states skipped due to insuffient data (it is normal to have some skipped.)
LOG (gmm-est:main():gmm-est.cc:102) Transition model update: Overall 0.00134807 log-like improvement per frame over 492109 frames.
LOG (gmm-est:MleAmDiagGmmUpdate():mle-am-diag-gmm.cc:225) 0 variance elements floored in 0 Gaussians, out of 81
LOG (gmm-est:MleAmDiagGmmUpdate():mle-am-diag-gmm.cc:229) Removed 0 Gaussians due to counts < --min-gaussian-occupancy=10 and --remove-low-count-gaussians=true
LOG (gmm-est:main():gmm-est.cc:113) GMM update: Overall 0.154556 objective function improvement per frame over 492109 frames
LOG (gmm-est:main():gmm-est.cc:116) GMM update: Overall avg like per frame = -85.128 over 492109 frames.
LOG (gmm-est:SplitByCount():am-diag-gmm.cc:116) Split 70 states with target = 92, power = 0.25, perturb_factor = 0.01 and min_count = 20, split #Gauss from 81 to 92
LOG (gmm-est:main():gmm-est.cc:146) Written model to exp/mono0a/4.mdl
# Accounting: time=0 threads=1
# Ended (code 0) at Mon Jul 13 18:06:33 EEST 2015, elapsed time 0 seconds
