# lattice-scale --inv-acoustic-scale=40 "ark:gunzip -c exp/mono0a/decode_test_smarthomes/lat.*.gz|" ark:- | lattice-add-penalty --word-ins-penalty=0.0 ark:- ark:- | lattice-best-path --word-symbol-table=exp/mono0a/graph_tgpr/words.txt ark:- ark,t:- | utils/int2sym.pl -f 2- exp/mono0a/graph_tgpr/words.txt | cat > exp/mono0a/decode_test_smarthomes/scoring_kaldi/penalty_0.0/40.txt 
# Started at Mon Jul 13 18:11:25 EEST 2015
#
lattice-scale --inv-acoustic-scale=40 'ark:gunzip -c exp/mono0a/decode_test_smarthomes/lat.*.gz|' ark:- 
lattice-add-penalty --word-ins-penalty=0.0 ark:- ark:- 
lattice-best-path --word-symbol-table=exp/mono0a/graph_tgpr/words.txt ark:- ark,t:- 
LOG (lattice-best-path:main():lattice-best-path.cc:99) For utterance S08-eventid-000, best cost 3.06614 + 39.9857 = 43.0518 over 22 frames.
S08-eventid-000 ds 
LOG (lattice-best-path:main():lattice-best-path.cc:99) For utterance S08-eventid-001, best cost 3.09158 + 75.8019 = 78.8935 over 36 frames.
S08-eventid-001 ds 
LOG (lattice-best-path:main():lattice-best-path.cc:99) For utterance S08-eventid-002, best cost 3.23789 + 102.72 = 105.958 over 44 frames.
S08-eventid-002 ds 
LOG (lattice-best-path:main():lattice-best-path.cc:99) For utterance S08-eventid-003, best cost 3.06114 + 42.4378 = 45.4989 over 22 frames.
S08-eventid-003 ds 
LOG (lattice-best-path:main():lattice-best-path.cc:99) For utterance S08-eventid-004, best cost 3.11298 + 83.2772 = 86.3901 over 41 frames.
S08-eventid-004 ds 
LOG (lattice-best-path:main():lattice-best-path.cc:99) For utterance S08-eventid-005, best cost 3.15587 + 206.479 = 209.635 over 100 frames.
S08-eventid-005 kn 
LOG (lattice-best-path:main():lattice-best-path.cc:99) For utterance S08-eventid-006, best cost 3.15466 + 65.2048 = 68.3595 over 33 frames.
S08-eventid-006 ds 
LOG (lattice-best-path:main():lattice-best-path.cc:99) For utterance S08-eventid-007, best cost 8.90056 + 303.725 = 312.625 over 154 frames.
S08-eventid-007 cm 
LOG (lattice-best-path:main():lattice-best-path.cc:99) For utterance S08-eventid-008, best cost 3.15571 + 96.029 = 99.1847 over 44 frames.
S08-eventid-008 ds 
LOG (lattice-best-path:main():lattice-best-path.cc:99) For utterance S08-eventid-009, best cost 3.10628 + 57.6882 = 60.7945 over 29 frames.
S08-eventid-009 ds 
LOG (lattice-best-path:main():lattice-best-path.cc:99) For utterance S08-eventid-010, best cost 3.18567 + 105.342 = 108.528 over 51 frames.
S08-eventid-010 ds 
LOG (lattice-best-path:main():lattice-best-path.cc:99) For utterance S08-eventid-011, best cost 3.14221 + 184.963 = 188.105 over 86 frames.
S08-eventid-011 kn 
LOG (lattice-best-path:main():lattice-best-path.cc:99) For utterance S08-eventid-012, best cost 3.11907 + 61.2288 = 64.3479 over 31 frames.
S08-eventid-012 ds 
LOG (lattice-best-path:main():lattice-best-path.cc:99) For utterance S08-eventid-013, best cost 7.65936 + 202.563 = 210.223 over 102 frames.
S08-eventid-013 st 
LOG (lattice-best-path:main():lattice-best-path.cc:99) For utterance S08-eventid-014, best cost 3.13221 + 87.1257 = 90.2579 over 42 frames.
S08-eventid-014 ds 
LOG (lattice-best-path:main():lattice-best-path.cc:99) For utterance S08-eventid-015, best cost 2.86974 + 52.1128 = 54.9825 over 24 frames.
S08-eventid-015 st 
LOG (lattice-best-path:main():lattice-best-path.cc:99) For utterance S08-eventid-016, best cost 3.10523 + 54.8282 = 57.9334 over 28 frames.
S08-eventid-016 ds 
LOG (lattice-best-path:main():lattice-best-path.cc:99) For utterance S08-eventid-017, best cost 3.13649 + 88.6992 = 91.8356 over 43 frames.
S08-eventid-017 ds 
LOG (lattice-best-path:main():lattice-best-path.cc:99) For utterance S08-eventid-018, best cost 3.18025 + 194.134 = 197.314 over 89 frames.
S08-eventid-018 kn 
LOG (lattice-best-path:main():lattice-best-path.cc:99) For utterance S08-eventid-019, best cost 5.45288 + 121.415 = 126.867 over 59 frames.
S08-eventid-019 ds 
LOG (lattice-best-path:main():lattice-best-path.cc:99) For utterance S08-eventid-020, best cost 13.797 + 298.808 = 312.605 over 146 frames.
S08-eventid-020 si 
LOG (lattice-best-path:main():lattice-best-path.cc:99) For utterance S08-eventid-021, best cost 3.09796 + 72.8515 = 75.9495 over 34 frames.
S08-eventid-021 ds 
LOG (lattice-best-path:main():lattice-best-path.cc:99) For utterance S08-eventid-022, best cost 3.13361 + 65.955 = 69.0886 over 34 frames.
S08-eventid-022 ds 
LOG (lattice-best-path:main():lattice-best-path.cc:99) For utterance S08-eventid-023, best cost 3.12046 + 86.4826 = 89.6031 over 41 frames.
S08-eventid-023 ds 
LOG (lattice-best-path:main():lattice-best-path.cc:99) For utterance S08-eventid-024, best cost 3.19794 + 180.443 = 183.641 over 83 frames.
S08-eventid-024 kn 
LOG (lattice-best-path:main():lattice-best-path.cc:99) For utterance S08-eventid-025, best cost 3.09557 + 54.8981 = 57.9936 over 29 frames.
S08-eventid-025 ds 
LOG (lattice-best-path:main():lattice-best-path.cc:99) For utterance S08-eventid-026, best cost 12.8217 + 350.295 = 363.117 over 174 frames.
S08-eventid-026 kt 
LOG (lattice-best-path:main():lattice-best-path.cc:99) For utterance S08-eventid-027, best cost 3.1354 + 88.4187 = 91.5541 over 41 frames.
S08-eventid-027 ds 
LOG (lattice-best-path:main():lattice-best-path.cc:99) For utterance S08-eventid-028, best cost 3.09698 + 60.5656 = 63.6626 over 31 frames.
S08-eventid-028 ds 
LOG (lattice-best-path:main():lattice-best-path.cc:99) For utterance S08-eventid-029, best cost 3.11081 + 79.446 = 82.5568 over 37 frames.
S08-eventid-029 ds 
LOG (lattice-best-path:main():lattice-best-path.cc:99) For utterance S08-eventid-030, best cost 3.035 + 173.214 = 176.249 over 80 frames.
S08-eventid-030 kn 
LOG (lattice-best-path:main():lattice-best-path.cc:99) For utterance S08-eventid-031, best cost 3.10942 + 60.6255 = 63.7349 over 32 frames.
S08-eventid-031 ds 
LOG (lattice-best-path:main():lattice-best-path.cc:99) For utterance S08-eventid-032, best cost 3.13649 + 90.7574 = 93.8939 over 43 frames.
S08-eventid-032 ds 
LOG (lattice-best-path:main():lattice-best-path.cc:99) For utterance S08-eventid-033, best cost 2.9288 + 78.2317 = 81.1605 over 38 frames.
S08-eventid-033 kn 
LOG (lattice-best-path:main():lattice-best-path.cc:99) For utterance S08-eventid-034, best cost 3.10431 + 75.827 = 78.9313 over 38 frames.
S08-eventid-034 ds 
LOG (lattice-best-path:main():lattice-best-path.cc:99) For utterance S08-eventid-035, best cost 3.1996 + 118.689 = 121.889 over 56 frames.
S08-eventid-035 ds 
LOG (lattice-best-path:main():lattice-best-path.cc:99) For utterance S08-eventid-036, best cost 3.14333 + 171.27 = 174.413 over 78 frames.
S08-eventid-036 kn 
LOG (lattice-best-path:main():lattice-best-path.cc:99) For utterance S08-eventid-037, best cost 3.10464 + 70.8076 = 73.9122 over 37 frames.
S08-eventid-037 ds 
LOG (lattice-best-path:main():lattice-best-path.cc:99) For utterance S08-eventid-038, best cost 8.5939 + 198.373 = 206.967 over 99 frames.
S08-eventid-038 st 
LOG (lattice-best-path:main():lattice-best-path.cc:99) For utterance S08-eventid-039, best cost 3.07664 + 74.2364 = 77.313 over 36 frames.
S08-eventid-039 ds 
LOG (lattice-best-path:main():lattice-best-path.cc:99) For utterance S08-eventid-040, best cost 3.09069 + 48.8037 = 51.8944 over 25 frames.
S08-eventid-040 ds 
LOG (lattice-best-path:main():lattice-best-path.cc:99) For utterance S08-eventid-041, best cost 3.11189 + 84.808 = 87.9198 over 39 frames.
S08-eventid-041 ds 
LOG (lattice-best-path:main():lattice-best-path.cc:99) For utterance S08-eventid-042, best cost 3.09009 + 187.061 = 190.151 over 85 frames.
S08-eventid-042 kn 
LOG (lattice-best-path:main():lattice-best-path.cc:99) For utterance S08-eventid-043, best cost 3.13047 + 60.4701 = 63.6006 over 31 frames.
S08-eventid-043 ds 
LOG (lattice-best-path:main():lattice-best-path.cc:99) For utterance S08-eventid-044, best cost 14.7849 + 430.361 = 445.146 over 214 frames.
S08-eventid-044 st 
LOG (lattice-best-path:main():lattice-best-path.cc:99) For utterance S08-eventid-045, best cost 3.15462 + 91.8488 = 95.0035 over 42 frames.
S08-eventid-045 ds 
LOG (lattice-best-path:main():lattice-best-path.cc:99) For utterance S08-eventid-046, best cost 3.11141 + 50.0877 = 53.1991 over 25 frames.
S08-eventid-046 ds 
LOG (lattice-best-path:main():lattice-best-path.cc:99) For utterance S08-eventid-047, best cost 3.15361 + 93.8277 = 96.9813 over 47 frames.
S08-eventid-047 ds 
LOG (lattice-best-path:main():lattice-best-path.cc:99) For utterance S08-eventid-048, best cost 3.0072 + 156.728 = 159.735 over 71 frames.
S08-eventid-048 kn 
LOG (lattice-best-path:main():lattice-best-path.cc:99) For utterance S08-eventid-049, best cost 3.10127 + 57.8052 = 60.9064 over 29 frames.
S08-eventid-049 ds 
LOG (lattice-best-path:main():lattice-best-path.cc:99) For utterance S08-eventid-050, best cost 10.6077 + 377.942 = 388.55 over 190 frames.
S08-eventid-050 si 
LOG (lattice-best-path:main():lattice-best-path.cc:99) For utterance S08-eventid-051, best cost 3.07119 + 55.5391 = 58.6103 over 26 frames.
S08-eventid-051 ds 
LOG (lattice-best-path:main():lattice-best-path.cc:99) For utterance S08-eventid-052, best cost 20.3255 + 728.565 = 748.89 over 352 frames.
S08-eventid-052 st 
LOG (lattice-best-path:main():lattice-best-path.cc:99) For utterance S08-eventid-053, best cost 3.10768 + 62.8145 = 65.9222 over 31 frames.
S08-eventid-053 ds 
LOG (lattice-best-path:main():lattice-best-path.cc:99) For utterance S08-eventid-054, best cost 3.07555 + 69.2503 = 72.3259 over 34 frames.
S08-eventid-054 ds 
LOG (lattice-best-path:main():lattice-best-path.cc:99) For utterance S08-eventid-055, best cost 3.04522 + 165.616 = 168.661 over 75 frames.
S08-eventid-055 kn 
LOG (lattice-best-path:main():lattice-best-path.cc:99) For utterance S08-eventid-056, best cost 3.11256 + 66.5027 = 69.6153 over 35 frames.
S08-eventid-056 ds 
LOG (lattice-best-path:main():lattice-best-path.cc:99) For utterance S08-eventid-057, best cost 12.6824 + 344.323 = 357.005 over 161 frames.
S08-eventid-057 st 
LOG (lattice-best-path:main():lattice-best-path.cc:99) For utterance S08-eventid-058, best cost 5.28162 + 82.2719 = 87.5535 over 39 frames.
S08-eventid-058 ds 
LOG (lattice-best-path:main():lattice-best-path.cc:99) For utterance S08-eventid-059, best cost 15.7673 + 421.199 = 436.967 over 202 frames.
S08-eventid-059 st 
LOG (lattice-best-path:main():lattice-best-path.cc:99) For utterance S08-eventid-060, best cost 3.07999 + 49.2276 = 52.3076 over 25 frames.
S08-eventid-060 ds 
LOG (lattice-best-path:main():lattice-best-path.cc:99) For utterance S08-eventid-061, best cost 3.12256 + 80.2303 = 83.3529 over 38 frames.
S08-eventid-061 ds 
LOG (lattice-best-path:main():lattice-best-path.cc:99) For utterance S08-eventid-062, best cost 3.17699 + 169.021 = 172.198 over 80 frames.
S08-eventid-062 kn 
LOG (lattice-best-path:main():lattice-best-path.cc:99) For utterance S08-eventid-063, best cost 5.42146 + 113.121 = 118.542 over 56 frames.
S08-eventid-063 ds 
LOG (lattice-best-path:main():lattice-best-path.cc:99) For utterance S08-eventid-064, best cost 13.6939 + 425.551 = 439.244 over 211 frames.
S08-eventid-064 st 
LOG (lattice-best-path:main():lattice-best-path.cc:99) For utterance S08-eventid-065, best cost 3.10653 + 75.422 = 78.5285 over 36 frames.
S08-eventid-065 ds 
LOG (lattice-best-path:main():lattice-best-path.cc:99) For utterance S08-eventid-066, best cost 17.8964 + 576.582 = 594.479 over 281 frames.
S08-eventid-066 si 
LOG (lattice-best-path:main():lattice-best-path.cc:99) For utterance S08-eventid-067, best cost 3.07999 + 52.3287 = 55.4087 over 25 frames.
S08-eventid-067 ds 
LOG (lattice-best-path:main():lattice-best-path.cc:99) For utterance S08-eventid-068, best cost 3.10232 + 84.5474 = 87.6498 over 42 frames.
S08-eventid-068 ds 
LOG (lattice-best-path:main():lattice-best-path.cc:99) For utterance S08-eventid-069, best cost 3.09117 + 151.866 = 154.958 over 68 frames.
S08-eventid-069 kn 
LOG (lattice-best-path:main():lattice-best-path.cc:99) For utterance S08-eventid-070, best cost 3.10628 + 56.382 = 59.4882 over 29 frames.
S08-eventid-070 ds 
LOG (lattice-best-path:main():lattice-best-path.cc:99) For utterance S08-eventid-071, best cost 16.4708 + 456.743 = 473.213 over 227 frames.
S08-eventid-071 kt 
LOG (lattice-best-path:main():lattice-best-path.cc:99) For utterance S08-eventid-072, best cost 3.114 + 77.113 = 80.227 over 36 frames.
S08-eventid-072 ds 
LOG (lattice-best-path:main():lattice-best-path.cc:99) For utterance S08-eventid-073, best cost 14.7574 + 418.138 = 432.895 over 201 frames.
S08-eventid-073 st 
LOG (lattice-best-path:main():lattice-best-path.cc:99) For utterance S08-eventid-074, best cost 3.09488 + 56.7127 = 59.8076 over 29 frames.
S08-eventid-074 ds 
LOG (lattice-best-path:main():lattice-best-path.cc:99) For utterance S08-eventid-075, best cost 3.13649 + 89.0815 = 92.218 over 43 frames.
S08-eventid-075 ds 
LOG (lattice-best-path:main():lattice-best-path.cc:99) For utterance S08-eventid-076, best cost 3.25793 + 187.586 = 190.844 over 88 frames.
S08-eventid-076 kn 
LOG (lattice-best-path:main():lattice-best-path.cc:99) For utterance S08-eventid-077, best cost 5.38497 + 88.3985 = 93.7834 over 42 frames.
S08-eventid-077 ds 
LOG (lattice-best-path:main():lattice-best-path.cc:99) For utterance S08-eventid-078, best cost 11.945 + 345.265 = 357.21 over 166 frames.
S08-eventid-078 st 
LOG (lattice-best-path:main():lattice-best-path.cc:99) For utterance S08-eventid-079, best cost 3.14295 + 99.4719 = 102.615 over 48 frames.
S08-eventid-079 ds 
LOG (lattice-best-path:main():lattice-best-path.cc:99) For utterance S08-eventid-080, best cost 27.6984 + 1137.14 = 1164.84 over 563 frames.
S08-eventid-080 si 
LOG (lattice-best-path:main():lattice-best-path.cc:99) For utterance S08-eventid-081, best cost 3.41681 + 259.76 = 263.177 over 130 frames.
S08-eventid-081 cm 
LOG (lattice-best-path:main():lattice-best-path.cc:99) For utterance S08-eventid-082, best cost 3.62635 + 271.829 = 275.455 over 143 frames.
S08-eventid-082 cm 
LOG (lattice-best-path:main():lattice-best-path.cc:99) For utterance S08-eventid-083, best cost 22.6199 + 885.142 = 907.762 over 429 frames.
S08-eventid-083 st 
LOG (lattice-best-path:main():lattice-best-path.cc:99) For utterance S08-eventid-084, best cost 3.35058 + 228.063 = 231.414 over 117 frames.
S08-eventid-084 cm 
LOG (lattice-best-path:main():lattice-best-path.cc:99) For utterance S08-eventid-085, best cost 8.00228 + 224.035 = 232.037 over 109 frames.
S08-eventid-085 st 
LOG (lattice-best-path:main():lattice-best-path.cc:99) For utterance S08-eventid-086, best cost 7.60806 + 185.567 = 193.175 over 88 frames.
S08-eventid-086 st 
LOG (lattice-best-path:main():lattice-best-path.cc:99) For utterance S08-eventid-087, best cost 5.60922 + 225.146 = 230.755 over 116 frames.
S08-eventid-087 cm 
LOG (lattice-best-path:main():lattice-best-path.cc:99) For utterance S08-eventid-088, best cost 22.9199 + 919.138 = 942.058 over 446 frames.
S08-eventid-088 si 
LOG (lattice-best-path:main():lattice-best-path.cc:99) For utterance S08-eventid-089, best cost 3.32834 + 227.97 = 231.299 over 117 frames.
S08-eventid-089 cm 
LOG (lattice-best-path:main():lattice-best-path.cc:99) For utterance S08-eventid-090, best cost 6.01678 + 340.68 = 346.697 over 170 frames.
S08-eventid-090 cm 
LOG (lattice-best-path:main():lattice-best-path.cc:99) For utterance S08-eventid-091, best cost 20.4065 + 558.412 = 578.818 over 265 frames.
S08-eventid-091 st 
LOG (lattice-best-path:main():lattice-best-path.cc:99) For utterance S08-eventid-092, best cost 3.16248 + 189.319 = 192.482 over 97 frames.
S08-eventid-092 cm 
LOG (lattice-best-path:main():lattice-best-path.cc:99) For utterance S08-eventid-093, best cost 5.26627 + 115.175 = 120.442 over 52 frames.
S08-eventid-093 st 
LOG (lattice-best-path:main():lattice-best-path.cc:99) For utterance S08-eventid-094, best cost 11.4048 + 407.516 = 418.921 over 205 frames.
S08-eventid-094 st 
LOG (lattice-best-path:main():lattice-best-path.cc:99) For utterance S08-eventid-095, best cost 3.37773 + 240.999 = 244.377 over 126 frames.
S08-eventid-095 cm 
LOG (lattice-best-path:main():lattice-best-path.cc:99) For utterance S08-eventid-096, best cost 18.6814 + 563.46 = 582.141 over 265 frames.
S08-eventid-096 st 
LOG (lattice-best-path:main():lattice-best-path.cc:99) For utterance S08-eventid-097, best cost 3.38101 + 207.727 = 211.108 over 104 frames.
S08-eventid-097 cm 
LOG (lattice-best-path:main():lattice-best-path.cc:99) For utterance S08-eventid-098, best cost 8.68822 + 200.438 = 209.126 over 96 frames.
S08-eventid-098 st 
LOG (lattice-best-path:main():lattice-best-path.cc:99) For utterance S08-eventid-099, best cost 5.29275 + 123.633 = 128.926 over 59 frames.
S08-eventid-099 cm 
LOG (lattice-best-path:main():lattice-best-path.cc:99) For utterance S08-eventid-100, best cost 3.35079 + 179.815 = 183.165 over 91 frames.
S08-eventid-100 cm 
LOG (lattice-best-path:main():lattice-best-path.cc:99) For utterance S08-eventid-101, best cost 6.87382 + 258.786 = 265.66 over 125 frames.
S08-eventid-101 si 
LOG (lattice-best-path:main():lattice-best-path.cc:99) For utterance S08-eventid-102, best cost 5.65837 + 194.828 = 200.487 over 96 frames.
S08-eventid-102 cm 
LOG (lattice-best-path:main():lattice-best-path.cc:99) For utterance S08-eventid-103, best cost 32.7333 + 1026.13 = 1058.86 over 494 frames.
S08-eventid-103 spe 
LOG (lattice-best-path:main():lattice-best-path.cc:99) For utterance S08-eventid-104, best cost 3.25813 + 220.624 = 223.882 over 110 frames.
S08-eventid-104 cm 
LOG (lattice-best-path:main():lattice-best-path.cc:99) For utterance S08-eventid-105, best cost 9.7726 + 166.899 = 176.671 over 80 frames.
S08-eventid-105 st 
LOG (lattice-best-path:main():lattice-best-path.cc:99) For utterance S08-eventid-106, best cost 3.04265 + 108.097 = 111.14 over 54 frames.
S08-eventid-106 cm 
LOG (lattice-best-path:main():lattice-best-path.cc:99) For utterance S08-eventid-107, best cost 3.27481 + 105.762 = 109.037 over 51 frames.
S08-eventid-107 cm 
LOG (lattice-best-path:main():lattice-best-path.cc:99) For utterance S08-eventid-108, best cost 3.06113 + 149.847 = 152.908 over 77 frames.
S08-eventid-108 cm 
LOG (lattice-best-path:main():lattice-best-path.cc:99) For utterance S08-eventid-109, best cost 33.2943 + 827.647 = 860.941 over 404 frames.
S08-eventid-109 st 
LOG (lattice-best-path:main():lattice-best-path.cc:99) For utterance S08-eventid-110, best cost 6.18346 + 299.258 = 305.441 over 144 frames.
S08-eventid-110 cm 
LOG (lattice-best-path:main():lattice-best-path.cc:99) For utterance S08-eventid-111, best cost 8.41841 + 381.818 = 390.236 over 185 frames.
S08-eventid-111 cm 
LOG (lattice-best-path:main():lattice-best-path.cc:99) For utterance S08-eventid-112, best cost 3.25003 + 120.582 = 123.832 over 59 frames.
S08-eventid-112 cm 
LOG (lattice-best-path:main():lattice-best-path.cc:99) For utterance S08-eventid-113, best cost 8.06558 + 340.809 = 348.875 over 157 frames.
S08-eventid-113 st 
LOG (lattice-best-path:main():lattice-best-path.cc:99) For utterance S08-eventid-114, best cost 19.4241 + 506.638 = 526.062 over 237 frames.
S08-eventid-114 st 
LOG (lattice-best-path:main():lattice-best-path.cc:99) For utterance S08-eventid-115, best cost 5.5401 + 232.266 = 237.806 over 115 frames.
S08-eventid-115 cm 
LOG (lattice-best-path:main():lattice-best-path.cc:99) For utterance S08-eventid-116, best cost 7.91298 + 180.382 = 188.294 over 89 frames.
S08-eventid-116 si 
LOG (lattice-best-path:main():lattice-best-path.cc:99) For utterance S08-eventid-117, best cost 5.61467 + 207.878 = 213.493 over 100 frames.
S08-eventid-117 cm 
LOG (lattice-best-path:main():lattice-best-path.cc:99) For utterance S08-eventid-118, best cost 5.35267 + 140.981 = 146.334 over 71 frames.
S08-eventid-118 cm 
LOG (lattice-best-path:main():lattice-best-path.cc:99) For utterance S08-eventid-119, best cost 8.5322 + 167.238 = 175.771 over 81 frames.
S08-eventid-119 st 
LOG (lattice-best-path:main():lattice-best-path.cc:99) For utterance S08-eventid-120, best cost 3.48495 + 264.243 = 267.728 over 130 frames.
S08-eventid-120 cm 
LOG (lattice-best-path:main():lattice-best-path.cc:99) For utterance S08-eventid-121, best cost 16.4935 + 540.084 = 556.578 over 262 frames.
S08-eventid-121 si 
LOG (lattice-best-path:main():lattice-best-path.cc:99) For utterance S08-eventid-122, best cost 5.766 + 244.717 = 250.483 over 122 frames.
S08-eventid-122 cm 
LOG (lattice-best-path:main():lattice-best-path.cc:99) For utterance S08-eventid-123, best cost 8.74846 + 219.804 = 228.552 over 106 frames.
S08-eventid-123 st 
LOG (lattice-best-path:main():lattice-best-path.cc:99) For utterance S08-eventid-124, best cost 5.63972 + 182.242 = 187.882 over 92 frames.
S08-eventid-124 cm 
LOG (lattice-best-path:main():lattice-best-path.cc:99) For utterance S08-eventid-125, best cost 3.43387 + 228.569 = 232.003 over 116 frames.
S08-eventid-125 cm 
LOG (lattice-best-path:main():lattice-best-path.cc:99) For utterance S08-eventid-126, best cost 19.3819 + 530.428 = 549.809 over 245 frames.
S08-eventid-126 st 
LOG (lattice-best-path:main():lattice-best-path.cc:99) For utterance S08-eventid-127, best cost 5.58893 + 206.99 = 212.579 over 101 frames.
S08-eventid-127 cm 
LOG (lattice-best-path:main():lattice-best-path.cc:99) For utterance S08-eventid-128, best cost 5.46755 + 156.004 = 161.472 over 74 frames.
S08-eventid-128 cm 
LOG (lattice-best-path:main():lattice-best-path.cc:99) For utterance S08-eventid-129, best cost 3.04864 + 118.413 = 121.462 over 60 frames.
S08-eventid-129 cm 
LOG (lattice-best-path:main():lattice-best-path.cc:99) For utterance S08-eventid-130, best cost 13.6916 + 223.979 = 237.67 over 101 frames.
S08-eventid-130 spe 
LOG (lattice-best-path:main():lattice-best-path.cc:99) For utterance S08-eventid-131, best cost 3.46437 + 211.598 = 215.062 over 107 frames.
S08-eventid-131 cm 
LOG (lattice-best-path:main():lattice-best-path.cc:99) For utterance S08-eventid-132, best cost 17.5259 + 564.765 = 582.291 over 268 frames.
S08-eventid-132 st 
LOG (lattice-best-path:main():lattice-best-path.cc:99) For utterance S08-eventid-133, best cost 3.18457 + 142.284 = 145.468 over 71 frames.
S08-eventid-133 cm 
LOG (lattice-best-path:main():lattice-best-path.cc:99) For utterance S08-eventid-134, best cost 3.02611 + 134.452 = 137.479 over 68 frames.
S08-eventid-134 cm 
LOG (lattice-best-path:main():lattice-best-path.cc:99) For utterance S08-eventid-135, best cost 3.17425 + 127.548 = 130.723 over 63 frames.
S08-eventid-135 cm 
LOG (lattice-best-path:main():lattice-best-path.cc:99) For utterance S08-eventid-136, best cost 3.11708 + 184.042 = 187.159 over 98 frames.
S08-eventid-136 cm 
LOG (lattice-best-path:main():lattice-best-path.cc:99) For utterance S08-eventid-137, best cost 22.251 + 612.442 = 634.693 over 289 frames.
S08-eventid-137 st 
LOG (lattice-best-path:main():lattice-best-path.cc:99) For utterance S08-eventid-138, best cost 3.28629 + 206.096 = 209.383 over 103 frames.
S08-eventid-138 cm 
LOG (lattice-best-path:main():lattice-best-path.cc:99) For utterance S08-eventid-139, best cost 3.24047 + 188.388 = 191.629 over 93 frames.
S08-eventid-139 cm 
LOG (lattice-best-path:main():lattice-best-path.cc:99) For utterance S08-eventid-140, best cost 3.10664 + 154.465 = 157.571 over 77 frames.
S08-eventid-140 cm 
LOG (lattice-best-path:main():lattice-best-path.cc:99) For utterance S08-eventid-141, best cost 3.23377 + 216.213 = 219.447 over 110 frames.
S08-eventid-141 cm 
LOG (lattice-best-path:main():lattice-best-path.cc:99) For utterance S08-eventid-142, best cost 5.46168 + 89.3394 = 94.8011 over 44 frames.
S08-eventid-142 si 
LOG (lattice-best-path:main():lattice-best-path.cc:99) For utterance S08-eventid-143, best cost 5.70696 + 221.415 = 227.122 over 109 frames.
S08-eventid-143 si 
LOG (lattice-best-path:main():lattice-best-path.cc:99) For utterance S08-eventid-144, best cost 8.42634 + 317.419 = 325.846 over 116 frames.
S08-eventid-144 pr 
LOG (lattice-best-path:main():lattice-best-path.cc:99) For utterance S08-eventid-145, best cost 3.49226 + 284.616 = 288.109 over 103 frames.
S08-eventid-145 pr 
LOG (lattice-best-path:main():lattice-best-path.cc:99) For utterance S08-eventid-146, best cost 3.88364 + 859.632 = 863.516 over 362 frames.
S08-eventid-146 spe 
LOG (lattice-best-path:main():lattice-best-path.cc:99) For utterance S08-eventid-147, best cost 23.3321 + 675.545 = 698.877 over 325 frames.
S08-eventid-147 st 
LOG (lattice-best-path:main():lattice-best-path.cc:99) For utterance S08-eventid-148, best cost 8.7423 + 1983.44 = 1992.18 over 871 frames.
S08-eventid-148 pr 
LOG (lattice-best-path:main():lattice-best-path.cc:99) For utterance S08-eventid-149, best cost 3.5814 + 279.631 = 283.213 over 119 frames.
S08-eventid-149 spe 
LOG (lattice-best-path:main():lattice-best-path.cc:99) For utterance S08-eventid-150, best cost 3.45606 + 117.97 = 121.427 over 52 frames.
S08-eventid-150 spe 
LOG (lattice-best-path:main():lattice-best-path.cc:99) For utterance S08-eventid-151, best cost 2.96144 + 75.3654 = 78.3268 over 35 frames.
S08-eventid-151 st 
LOG (lattice-best-path:main():lattice-best-path.cc:99) For utterance S08-eventid-152, best cost 3.44258 + 105.026 = 108.468 over 45 frames.
S08-eventid-152 spe 
LOG (lattice-best-path:main():lattice-best-path.cc:99) For utterance S08-eventid-153, best cost 2.83089 + 48.8893 = 51.7202 over 22 frames.
S08-eventid-153 st 
LOG (lattice-best-path:main():lattice-best-path.cc:99) For utterance S08-eventid-154, best cost 3.42746 + 90.3598 = 93.7872 over 38 frames.
S08-eventid-154 spe 
LOG (lattice-best-path:main():lattice-best-path.cc:99) For utterance S08-eventid-155, best cost 5.13499 + 79.2156 = 84.3506 over 35 frames.
S08-eventid-155 st 
LOG (lattice-best-path:main():lattice-best-path.cc:99) For utterance S08-eventid-156, best cost 3.46959 + 135.738 = 139.208 over 57 frames.
S08-eventid-156 spe 
LOG (lattice-best-path:main():lattice-best-path.cc:99) For utterance S08-eventid-157, best cost 12.8266 + 516.498 = 529.325 over 246 frames.
S08-eventid-157 si 
LOG (lattice-best-path:main():lattice-best-path.cc:99) For utterance S08-eventid-158, best cost 22.0953 + 2460.38 = 2482.47 over 1093 frames.
S08-eventid-158 pr 
LOG (lattice-best-path:main():lattice-best-path.cc:99) For utterance S08-eventid-159, best cost 3.47428 + 154.307 = 157.781 over 64 frames.
S08-eventid-159 spe 
LOG (lattice-best-path:main():lattice-best-path.cc:99) For utterance S08-eventid-160, best cost 10.6745 + 411.05 = 421.724 over 173 frames.
S08-eventid-160 spe 
LOG (lattice-best-path:main():lattice-best-path.cc:99) For utterance S08-eventid-161, best cost 2.84614 + 46.0311 = 48.8773 over 21 frames.
S08-eventid-161 st 
LOG (lattice-best-path:main():lattice-best-path.cc:99) For utterance S08-eventid-162, best cost 3.52097 + 329.157 = 332.678 over 139 frames.
S08-eventid-162 spe 
LOG (lattice-best-path:main():lattice-best-path.cc:99) For utterance S08-eventid-163, best cost 10.2912 + 273.06 = 283.351 over 133 frames.
S08-eventid-163 si 
LOG (lattice-best-path:main():lattice-best-path.cc:99) For utterance S08-eventid-164, best cost 36.6423 + 2500.86 = 2537.5 over 1067 frames.
S08-eventid-164 pr 
LOG (lattice-best-path:main():lattice-best-path.cc:99) For utterance S08-eventid-165, best cost 5.82753 + 329.029 = 334.857 over 149 frames.
S08-eventid-165 spe 
LOG (lattice-best-path:main():lattice-best-path.cc:99) For utterance S08-eventid-166, best cost 11.8248 + 681.672 = 693.497 over 331 frames.
S08-eventid-166 st 
LOG (lattice-best-path:main():lattice-best-path.cc:99) For utterance S08-eventid-167, best cost 3.53014 + 203.334 = 206.864 over 90 frames.
S08-eventid-167 spe 
LOG (lattice-best-path:main():lattice-best-path.cc:99) For utterance S08-eventid-168, best cost 3.0338 + 76.019 = 79.0528 over 36 frames.
S08-eventid-168 cm 
LOG (lattice-best-path:main():lattice-best-path.cc:99) For utterance S08-eventid-169, best cost 3.44092 + 90.4763 = 93.9172 over 39 frames.
S08-eventid-169 spe 
LOG (lattice-best-path:main():lattice-best-path.cc:99) For utterance S08-eventid-170, best cost 3.5814 + 340.808 = 344.39 over 145 frames.
S08-eventid-170 spe 
LOG (lattice-best-path:main():lattice-best-path.cc:99) For utterance S08-eventid-171, best cost 44.1507 + 2380.98 = 2425.13 over 1036 frames.
S08-eventid-171 pr 
LOG (lattice-best-path:main():lattice-best-path.cc:99) For utterance S08-eventid-172, best cost 11.3056 + 519.192 = 530.498 over 232 frames.
S08-eventid-172 spe 
LOG (lattice-best-path:main():lattice-best-path.cc:99) For utterance S08-eventid-173, best cost 3.44561 + 166.819 = 170.264 over 70 frames.
S08-eventid-173 spe 
LOG (lattice-best-path:main():lattice-best-path.cc:99) For utterance S08-eventid-174, best cost 11.071 + 552.987 = 564.058 over 258 frames.
S08-eventid-174 spe 
LOG (lattice-best-path:main():lattice-best-path.cc:99) For utterance S08-eventid-175, best cost 6.67313 + 2386.09 = 2392.76 over 1030 frames.
S08-eventid-175 pr 
LOG (lattice-best-path:main():lattice-best-path.cc:99) For utterance S08-eventid-176, best cost 4.14476 + 1710.8 = 1714.94 over 770 frames.
S08-eventid-176 spe 
LOG (lattice-best-path:main():lattice-best-path.cc:99) For utterance S08-eventid-177, best cost 11.2541 + 2017.22 = 2028.47 over 820 frames.
S08-eventid-177 pr 
LOG (lattice-best-path:main():lattice-best-path.cc:99) For utterance S08-eventid-178, best cost 3.41434 + 85.0953 = 88.5097 over 37 frames.
S08-eventid-178 spe 
LOG (lattice-best-path:main():lattice-best-path.cc:99) For utterance S08-eventid-179, best cost 3.65479 + 486.67 = 490.325 over 210 frames.
S08-eventid-179 spe 
LOG (lattice-best-path:main():lattice-best-path.cc:99) For utterance S08-eventid-180, best cost 5.65755 + 128.429 = 134.086 over 53 frames.
S08-eventid-180 spe 
LOG (lattice-best-path:main():lattice-best-path.cc:99) For utterance S08-eventid-181, best cost 3.48882 + 242.515 = 246.004 over 109 frames.
S08-eventid-181 spe 
LOG (lattice-best-path:main():lattice-best-path.cc:99) For utterance S08-eventid-182, best cost 28.2316 + 2419.32 = 2447.55 over 1013 frames.
S08-eventid-182 pr 
LOG (lattice-best-path:main():lattice-best-path.cc:99) For utterance S08-eventid-183, best cost 5.63187 + 141.332 = 146.964 over 60 frames.
S08-eventid-183 spe 
LOG (lattice-best-path:main():lattice-best-path.cc:99) For utterance S08-eventid-184, best cost 3.46018 + 108.99 = 112.45 over 47 frames.
S08-eventid-184 spe 
LOG (lattice-best-path:main():lattice-best-path.cc:99) For utterance S08-eventid-185, best cost 3.44085 + 167.633 = 171.073 over 70 frames.
S08-eventid-185 spe 
LOG (lattice-best-path:main():lattice-best-path.cc:99) For utterance S08-eventid-186, best cost 3.457 + 211.81 = 215.267 over 92 frames.
S08-eventid-186 spe 
LOG (lattice-best-path:main():lattice-best-path.cc:99) For utterance S08-eventid-187, best cost 6.55322 + 221.331 = 227.884 over 117 frames.
S08-eventid-187 si 
LOG (lattice-best-path:main():lattice-best-path.cc:99) For utterance S08-eventid-188, best cost 5.74777 + 480.767 = 486.514 over 206 frames.
S08-eventid-188 spe 
LOG (lattice-best-path:main():lattice-best-path.cc:99) For utterance S08-eventid-189, best cost 8.12919 + 1005.95 = 1014.08 over 507 frames.
S08-eventid-189 si 
LOG (lattice-best-path:main():lattice-best-path.cc:99) For utterance S08-eventid-190, best cost 9.90606 + 2724.97 = 2734.88 over 1128 frames.
S08-eventid-190 pr 
LOG (lattice-best-path:main():lattice-best-path.cc:99) For utterance S08-eventid-191, best cost 3.41793 + 78.4456 = 81.8636 over 33 frames.
S08-eventid-191 spe 
LOG (lattice-best-path:main():lattice-best-path.cc:99) For utterance S08-eventid-192, best cost 7.12148 + 331.19 = 338.312 over 146 frames.
S08-eventid-192 spe 
LOG (lattice-best-path:main():lattice-best-path.cc:99) For utterance S08-eventid-193, best cost 7.59767 + 979.693 = 987.291 over 424 frames.
S08-eventid-193 spe 
LOG (lattice-best-path:main():lattice-best-path.cc:99) For utterance S08-eventid-194, best cost 3.58991 + 516.259 = 519.849 over 224 frames.
S08-eventid-194 spe 
LOG (lattice-best-path:main():lattice-best-path.cc:99) For utterance S08-eventid-195, best cost 18.096 + 2975.53 = 2993.63 over 1238 frames.
S08-eventid-195 pr 
LOG (lattice-best-path:main():lattice-best-path.cc:99) For utterance S08-eventid-196, best cost 3.42164 + 76.174 = 79.5957 over 32 frames.
S08-eventid-196 spe 
LOG (lattice-best-path:main():lattice-best-path.cc:99) For utterance S08-eventid-197, best cost 3.46625 + 240.697 = 244.163 over 100 frames.
S08-eventid-197 spe 
LOG (lattice-best-path:main():lattice-best-path.cc:99) For utterance S08-eventid-198, best cost 3.53098 + 294.336 = 297.867 over 128 frames.
S08-eventid-198 spe 
LOG (lattice-best-path:main():lattice-best-path.cc:99) For utterance S08-eventid-199, best cost 12.1925 + 570.617 = 582.809 over 258 frames.
S08-eventid-199 spe 
LOG (lattice-best-path:main():lattice-best-path.cc:99) For utterance S08-eventid-200, best cost 9.51484 + 2094.71 = 2104.22 over 847 frames.
S08-eventid-200 pr 
LOG (lattice-best-path:main():lattice-best-path.cc:99) For utterance S08-eventid-201, best cost 27.2688 + 2290.81 = 2318.08 over 1007 frames.
S08-eventid-201 spe 
LOG (lattice-best-path:main():lattice-best-path.cc:99) For utterance S08-eventid-202, best cost 10.6811 + 394.969 = 405.65 over 192 frames.
S08-eventid-202 pw 
LOG (lattice-best-path:main():lattice-best-path.cc:99) For utterance S08-eventid-203, best cost 34.7714 + 1181.09 = 1215.87 over 577 frames.
S08-eventid-203 pw 
LOG (lattice-best-path:main():lattice-best-path.cc:99) For utterance S08-eventid-204, best cost 72.7762 + 2841.56 = 2914.34 over 1402 frames.
S08-eventid-204 pw 
LOG (lattice-best-path:main():lattice-best-path.cc:99) For utterance S08-eventid-205, best cost 51.6599 + 3132.32 = 3183.98 over 1526 frames.
S08-eventid-205 pw 
LOG (lattice-best-path:main():lattice-best-path.cc:99) For utterance S08-eventid-206, best cost 51.1802 + 3923.61 = 3974.79 over 1907 frames.
S08-eventid-206 pw 
LOG (lattice-best-path:main():lattice-best-path.cc:99) For utterance S08-eventid-207, best cost 19.4544 + 686.656 = 706.111 over 327 frames.
S08-eventid-207 pw 
LOG (lattice-best-path:main():lattice-best-path.cc:99) For utterance S08-eventid-208, best cost 38.0277 + 2410.1 = 2448.13 over 1172 frames.
S08-eventid-208 spe 
LOG (lattice-best-path:main():lattice-best-path.cc:99) For utterance S08-eventid-209, best cost 70.0757 + 3261.55 = 3331.62 over 1584 frames.
S08-eventid-209 pw 
LOG (lattice-best-path:main():lattice-best-path.cc:99) For utterance S08-eventid-210, best cost 82.9509 + 4226.09 = 4309.04 over 2069 frames.
S08-eventid-210 pw 
LOG (lattice-best-path:main():lattice-best-path.cc:99) For utterance S08-eventid-211, best cost 48.6866 + 2778.97 = 2827.66 over 1356 frames.
S08-eventid-211 pw 
LOG (lattice-best-path:main():lattice-best-path.cc:99) For utterance S08-eventid-212, best cost 51.7333 + 3614.63 = 3666.36 over 1770 frames.
S08-eventid-212 pw 
LOG (lattice-best-path:main():lattice-best-path.cc:99) For utterance S08-eventid-213, best cost 54.7521 + 3087.97 = 3142.72 over 1499 frames.
S08-eventid-213 pw 
LOG (lattice-best-path:main():lattice-best-path.cc:99) For utterance S08-eventid-214, best cost 4.08445 + 837.695 = 841.78 over 360 frames.
S08-eventid-214 co 
LOG (lattice-best-path:main():lattice-best-path.cc:99) For utterance S08-eventid-215, best cost 11.5993 + 966.101 = 977.7 over 420 frames.
S08-eventid-215 co 
LOG (lattice-best-path:main():lattice-best-path.cc:99) For utterance S08-eventid-216, best cost 3.87077 + 571.377 = 575.248 over 247 frames.
S08-eventid-216 co 
LOG (lattice-best-path:main():lattice-best-path.cc:99) For utterance S08-eventid-217, best cost 4.11328 + 828.084 = 832.197 over 346 frames.
S08-eventid-217 co 
LOG (lattice-best-path:main():lattice-best-path.cc:99) For utterance S08-eventid-218, best cost 12.6451 + 775.888 = 788.533 over 337 frames.
S08-eventid-218 co 
LOG (lattice-best-path:main():lattice-best-path.cc:99) For utterance S08-eventid-219, best cost 4.09135 + 737.266 = 741.358 over 318 frames.
S08-eventid-219 co 
LOG (lattice-best-path:main():lattice-best-path.cc:99) For utterance S08-eventid-220, best cost 8.1067 + 989.665 = 997.772 over 430 frames.
S08-eventid-220 co 
LOG (lattice-best-path:main():lattice-best-path.cc:99) For utterance S08-eventid-221, best cost 4.28236 + 966.762 = 971.045 over 410 frames.
S08-eventid-221 co 
LOG (lattice-best-path:main():lattice-best-path.cc:99) For utterance S08-eventid-222, best cost 10.5179 + 887.238 = 897.756 over 385 frames.
S08-eventid-222 co 
LOG (lattice-best-path:main():lattice-best-path.cc:99) For utterance S08-eventid-223, best cost 8.71362 + 776.349 = 785.063 over 332 frames.
S08-eventid-223 co 
LOG (lattice-best-path:main():lattice-best-path.cc:99) For utterance S08-eventid-224, best cost 3.89066 + 565.57 = 569.46 over 241 frames.
S08-eventid-224 co 
LOG (lattice-best-path:main():lattice-best-path.cc:99) For utterance S08-eventid-225, best cost 3.84915 + 596.579 = 600.429 over 247 frames.
S08-eventid-225 co 
LOG (lattice-best-path:main():lattice-best-path.cc:99) For utterance S08-eventid-226, best cost 16.803 + 1055.09 = 1071.9 over 527 frames.
S08-eventid-226 kt 
LOG (lattice-best-path:main():lattice-best-path.cc:99) For utterance S08-eventid-227, best cost 19.3386 + 1436.99 = 1456.33 over 732 frames.
S08-eventid-227 kt 
LOG (lattice-best-path:main():lattice-best-path.cc:99) For utterance S08-eventid-228, best cost 36.5106 + 1341.22 = 1377.73 over 670 frames.
S08-eventid-228 kt 
LOG (lattice-best-path:main():lattice-best-path.cc:99) For utterance S08-eventid-229, best cost 27.6972 + 1504.17 = 1531.87 over 752 frames.
S08-eventid-229 si 
LOG (lattice-best-path:main():lattice-best-path.cc:99) For utterance S08-eventid-230, best cost 29.2644 + 2809.59 = 2838.86 over 1425 frames.
S08-eventid-230 kt 
LOG (lattice-best-path:main():lattice-best-path.cc:99) For utterance S08-eventid-231, best cost 19.4378 + 1372.97 = 1392.41 over 685 frames.
S08-eventid-231 kt 
LOG (lattice-best-path:main():lattice-best-path.cc:99) For utterance S08-eventid-232, best cost 7.486 + 1533.37 = 1540.85 over 771 frames.
S08-eventid-232 kt 
LOG (lattice-best-path:main():lattice-best-path.cc:99) For utterance S08-eventid-233, best cost 14.121 + 2164.84 = 2178.96 over 1091 frames.
S08-eventid-233 kt 
LOG (lattice-best-path:main():lattice-best-path.cc:99) For utterance S08-eventid-234, best cost 21.5717 + 1537.31 = 1558.88 over 776 frames.
S08-eventid-234 kt 
LOG (lattice-best-path:main():lattice-best-path.cc:99) For utterance S08-eventid-235, best cost 30.4695 + 2115.05 = 2145.51 over 1060 frames.
S08-eventid-235 kt 
LOG (lattice-scale:main():lattice-scale.cc:90) Done 286 lattices.
LOG (lattice-best-path:main():lattice-best-path.cc:99) For utterance S08-eventid-236, best cost 29.2709 + 1876 = 1905.28 over 945 frames.
S08-eventid-236 kt 
LOG (lattice-best-path:main():lattice-best-path.cc:99) For utterance S08-eventid-237, best cost 13.616 + 1811.26 = 1824.88 over 803 frames.
S08-eventid-237 cl 
LOG (lattice-best-path:main():lattice-best-path.cc:99) For utterance S08-eventid-238, best cost 9.337 + 1472.72 = 1482.06 over 640 frames.
S08-eventid-238 cl 
LOG (lattice-best-path:main():lattice-best-path.cc:99) For utterance S08-eventid-239, best cost 7.78427 + 997.123 = 1004.91 over 448 frames.
S08-eventid-239 cl 
LOG (lattice-best-path:main():lattice-best-path.cc:99) For utterance S08-eventid-240, best cost 10.3158 + 1072.19 = 1082.51 over 470 frames.
S08-eventid-240 cl 
LOG (lattice-best-path:main():lattice-best-path.cc:99) For utterance S08-eventid-241, best cost 4.14473 + 1029.1 = 1033.25 over 442 frames.
S08-eventid-241 cl 
LOG (lattice-best-path:main():lattice-best-path.cc:99) For utterance S08-eventid-242, best cost 5.11138 + 1495.96 = 1501.07 over 641 frames.
S08-eventid-242 cl 
LOG (lattice-best-path:main():lattice-best-path.cc:99) For utterance S08-eventid-243, best cost 3.93519 + 1048.57 = 1052.51 over 450 frames.
S08-eventid-243 cl 
LOG (lattice-best-path:main():lattice-best-path.cc:99) For utterance S08-eventid-244, best cost 3.90973 + 1268.59 = 1272.5 over 548 frames.
S08-eventid-244 cl 
LOG (lattice-best-path:main():lattice-best-path.cc:99) For utterance S08-eventid-245, best cost 3.99321 + 1340.59 = 1344.59 over 579 frames.
S08-eventid-245 cl 
LOG (lattice-best-path:main():lattice-best-path.cc:99) For utterance S08-eventid-246, best cost 3.99762 + 1404.33 = 1408.33 over 609 frames.
S08-eventid-246 cl 
LOG (lattice-best-path:main():lattice-best-path.cc:99) For utterance S08-eventid-247, best cost 4.45602 + 1470.35 = 1474.81 over 632 frames.
S08-eventid-247 cl 
LOG (lattice-best-path:main():lattice-best-path.cc:99) For utterance S08-eventid-248, best cost 3.98859 + 1224.64 = 1228.62 over 531 frames.
S08-eventid-248 cl 
LOG (lattice-best-path:main():lattice-best-path.cc:99) For utterance S08-eventid-249, best cost 4.44194 + 1089.67 = 1094.11 over 469 frames.
S08-eventid-249 cl 
LOG (lattice-best-path:main():lattice-best-path.cc:99) For utterance S08-eventid-250, best cost 3.94844 + 1192.91 = 1196.86 over 513 frames.
S08-eventid-250 cl 
LOG (lattice-best-path:main():lattice-best-path.cc:99) For utterance S08-eventid-251, best cost 3.39355 + 58.1112 = 61.5047 over 26 frames.
S08-eventid-251 cl 
LOG (lattice-best-path:main():lattice-best-path.cc:99) For utterance S08-eventid-252, best cost 7.73241 + 1112.77 = 1120.51 over 509 frames.
S08-eventid-252 kj 
LOG (lattice-best-path:main():lattice-best-path.cc:99) For utterance S08-eventid-253, best cost 3.35423 + 141.183 = 144.537 over 68 frames.
S08-eventid-253 cm 
LOG (lattice-best-path:main():lattice-best-path.cc:99) For utterance S08-eventid-254, best cost 6.71797 + 1200.07 = 1206.79 over 555 frames.
S08-eventid-254 kj 
LOG (lattice-best-path:main():lattice-best-path.cc:99) For utterance S08-eventid-255, best cost 8.37386 + 1549.18 = 1557.55 over 710 frames.
S08-eventid-255 kj 
LOG (lattice-add-penalty:main():lattice-add-penalty.cc:62) Done adding word insertion penalty to 286 lattices.
LOG (lattice-best-path:main():lattice-best-path.cc:99) For utterance S08-eventid-256, best cost 10.9896 + 1231.43 = 1242.42 over 575 frames.
S08-eventid-256 kj 
LOG (lattice-best-path:main():lattice-best-path.cc:99) For utterance S08-eventid-257, best cost 3.3723 + 58.1055 = 61.4778 over 29 frames.
S08-eventid-257 pw 
LOG (lattice-best-path:main():lattice-best-path.cc:99) For utterance S08-eventid-258, best cost 6.50182 + 782.542 = 789.044 over 370 frames.
S08-eventid-258 ap 
LOG (lattice-best-path:main():lattice-best-path.cc:99) For utterance S08-eventid-259, best cost 3.94356 + 720.9 = 724.843 over 317 frames.
S08-eventid-259 kj 
LOG (lattice-best-path:main():lattice-best-path.cc:99) For utterance S08-eventid-260, best cost 3.89557 + 680.159 = 684.054 over 301 frames.
S08-eventid-260 kj 
LOG (lattice-best-path:main():lattice-best-path.cc:99) For utterance S08-eventid-261, best cost 8.89792 + 1085.53 = 1094.43 over 484 frames.
S08-eventid-261 kj 
LOG (lattice-best-path:main():lattice-best-path.cc:99) For utterance S08-eventid-262, best cost 4.1445 + 923.075 = 927.22 over 414 frames.
S08-eventid-262 kj 
LOG (lattice-best-path:main():lattice-best-path.cc:99) For utterance S08-eventid-263, best cost 8.74113 + 938.326 = 947.068 over 422 frames.
S08-eventid-263 kj 
LOG (lattice-best-path:main():lattice-best-path.cc:99) For utterance S08-eventid-264, best cost 4.1117 + 903.198 = 907.31 over 408 frames.
S08-eventid-264 kj 
LOG (lattice-best-path:main():lattice-best-path.cc:99) For utterance S08-eventid-265, best cost 6.39178 + 956.884 = 963.276 over 435 frames.
S08-eventid-265 kj 
LOG (lattice-best-path:main():lattice-best-path.cc:99) For utterance S08-eventid-266, best cost 10.9659 + 813.372 = 824.338 over 364 frames.
S08-eventid-266 kj 
LOG (lattice-best-path:main():lattice-best-path.cc:99) For utterance S08-eventid-267, best cost 4.02888 + 821.754 = 825.783 over 369 frames.
S08-eventid-267 kj 
LOG (lattice-best-path:main():lattice-best-path.cc:99) For utterance S08-eventid-268, best cost 4.21409 + 1037.34 = 1041.55 over 457 frames.
S08-eventid-268 kj 
LOG (lattice-best-path:main():lattice-best-path.cc:99) For utterance S08-eventid-269, best cost 3.925 + 674.792 = 678.717 over 310 frames.
S08-eventid-269 kj 
LOG (lattice-best-path:main():lattice-best-path.cc:99) For utterance S08-eventid-270, best cost 3.15579 + 615.469 = 618.625 over 285 frames.
S08-eventid-270 ap 
LOG (lattice-best-path:main():lattice-best-path.cc:99) For utterance S08-eventid-271, best cost 3.2826 + 666.436 = 669.719 over 311 frames.
S08-eventid-271 ap 
LOG (lattice-best-path:main():lattice-best-path.cc:99) For utterance S08-eventid-272, best cost 3.16121 + 670.101 = 673.262 over 306 frames.
S08-eventid-272 ap 
LOG (lattice-best-path:main():lattice-best-path.cc:99) For utterance S08-eventid-273, best cost 3.3185 + 751.637 = 754.956 over 347 frames.
S08-eventid-273 ap 
LOG (lattice-best-path:main():lattice-best-path.cc:99) For utterance S08-eventid-274, best cost 3.22298 + 755.113 = 758.336 over 353 frames.
S08-eventid-274 ap 
LOG (lattice-best-path:main():lattice-best-path.cc:99) For utterance S08-eventid-275, best cost 3.10628 + 736.013 = 739.119 over 353 frames.
S08-eventid-275 ap 
LOG (lattice-best-path:main():lattice-best-path.cc:99) For utterance S08-eventid-276, best cost 16.814 + 845.952 = 862.766 over 409 frames.
S08-eventid-276 ap 
LOG (lattice-best-path:main():lattice-best-path.cc:99) For utterance S08-eventid-277, best cost 3.31424 + 823.259 = 826.574 over 381 frames.
S08-eventid-277 ap 
LOG (lattice-best-path:main():lattice-best-path.cc:99) For utterance S08-eventid-278, best cost 3.40035 + 698.891 = 702.291 over 332 frames.
S08-eventid-278 ap 
LOG (lattice-best-path:main():lattice-best-path.cc:99) For utterance S08-eventid-279, best cost 19.5006 + 1001.97 = 1021.47 over 480 frames.
S08-eventid-279 ap 
LOG (lattice-best-path:main():lattice-best-path.cc:99) For utterance S08-eventid-280, best cost 3.36614 + 660.548 = 663.914 over 315 frames.
S08-eventid-280 ap 
LOG (lattice-best-path:main():lattice-best-path.cc:99) For utterance S08-eventid-281, best cost 7.48843 + 617.83 = 625.318 over 329 frames.
S08-eventid-281 si 
LOG (lattice-best-path:main():lattice-best-path.cc:99) For utterance S08-eventid-282, best cost 3.57488 + 923.191 = 926.766 over 445 frames.
S08-eventid-282 ap 
LOG (lattice-best-path:main():lattice-best-path.cc:99) For utterance S08-eventid-283, best cost 3.25943 + 863.766 = 867.025 over 400 frames.
S08-eventid-283 ap 
LOG (lattice-best-path:main():lattice-best-path.cc:99) For utterance S08-eventid-284, best cost 3.47952 + 150.936 = 154.416 over 70 frames.
S08-eventid-284 kj 
LOG (lattice-best-path:main():lattice-best-path.cc:99) For utterance S08-eventid-285, best cost 3.11294 + 82.0999 = 85.2128 over 40 frames.
S08-eventid-285 ds 
LOG (lattice-best-path:main():lattice-best-path.cc:124) Overall score per frame is 2.18826 = 0.0322047 [graph] + 2.15606 [acoustic] over 82367 frames.
LOG (lattice-best-path:main():lattice-best-path.cc:128) Done 286 lattices, failed for 0
# Accounting: time=1 threads=1
# Ended (code 0) at Mon Jul 13 18:11:26 EEST 2015, elapsed time 1 seconds
