# cat exp/mono0a/decode_test_smarthomes/scoring_kaldi/penalty_0.0/42.txt | compute-wer --text --mode=present ark:exp/mono0a/decode_test_smarthomes/scoring_kaldi/test_filt.txt ark,p:- >& exp/mono0a/decode_test_smarthomes/wer_42_0.0 
# Started at Mon Jul 13 18:11:26 EEST 2015
#
# Accounting: time=0 threads=1
# Ended (code 0) at Mon Jul 13 18:11:26 EEST 2015, elapsed time 0 seconds
